NA • cnbrrr
…
library(cnbrrr)

# Get indicators from a specific data set (replace with actual set_id)
indicators <- arad_list_indicators(set_id = 1115, filter = "podnik")
head(indicators)
#> # A tibble: 1 × 7
#>   indicator_id indicator_name                           frequency_code frequency_name unit_mult_code unit_mult_name unit 
#>   <chr>        <chr>                                    <chr>          <chr>          <chr>          <chr>          <chr>
#> 1 SRDM02712C   Inkasa celostátních daňových příjmů (zd… M              Měsíční        6              milióny        CZK

# Filter indicators by name within a data set
gdp_indicators <- arad_list_indicators(set_id = 1032, filter = "Místní vládní instituce")
gdp_indicators
#> # A tibble: 78 × 7
#>    indicator_id    indicator_name                       frequency_code frequency_name unit_mult_code unit_mult_name unit 
#>    <chr>           <chr>                                <chr>          <chr>          <chr>          <chr>          <chr>
#>  1 SFU0QS1313L01LE Finanční účty, Aktiva/Závazky celke… Q              Čtvrtletní     6              milióny        CZK  
#>  2 SFU0QS1313L01T  Finanční účty, Aktiva/Závazky celke… Q              Čtvrtletní     6              milióny        CZK  
#>  3 SFU0QS1313A01LE Finanční účty, Aktiva/Závazky celke… Q              Čtvrtletní     6              milióny        CZK  
#>  4 SFU0QS1313A01T  Finanční účty, Aktiva/Závazky celke… Q              Čtvrtletní     6              milióny        CZK  
#>  5 SFU2QS1313L05T  Finanční účty, F2 Oběživo a vklady:… Q              Čtvrtletní     6              milióny        CZK  
#>  6 SFU2QS1313A05LE Finanční účty, F2 Oběživo a vklady:… Q              Čtvrtletní     6              milióny        CZK  
#>  7 SFU2QS1313A05T  Finanční účty, F2 Oběživo a vklady:… Q              Čtvrtletní     6              milióny        CZK  
#>  8 SFU2QS1313A06LE Finanční účty, F2 Oběživo a vklady:… Q              Čtvrtletní     6              milióny        CZK  
#>  9 SFU2QS1313A06T  Finanční účty, F2 Oběživo a vklady:… Q              Čtvrtletní     6              milióny        CZK  
#> 10 SFU2QS1313L07T  Finanční účty, F2 Oběživo a vklady:… Q              Čtvrtletní     6              milióny        CZK  
#> # ℹ 68 more rows
…
Finding IDs: To effectively use these functions, browse the ARAD web interface to find: - set_id: Identifies data sets (collections of related indicators) - base_id: Identifies specific indicators within sets - indicators_list: Use specific indicator IDs when you know exactly which indicators you need (e.g., “SRUMD08402”) - selection_id: Use named selections you’ve created in your ARAD user account to group indicators

2. Retrieve data for specific indicators

Get time series data for the indicators you need:

# Get data for a single indicator
data <- arad_get_data(c("MBOPCAHDPPECY", "MBOPCCHDPPECY"))
#> $api_key
#> [1] "20252406003048901461901461UWHUTG2Q7CX2Y7PX"
#> 
#> $indicator_id_list
#> [1] "MBOPCAHDPPECY,MBOPCCHDPPECY"
data
#> # A tibble: 64 × 6
#>    indicator_id  snapshot_id period              value  year month
#>    <chr>         <chr>       <dttm>              <dbl> <dbl> <dbl>
#>  1 MBOPCAHDPPECY 71          2026-12-31 00:00:00   1.1  2026    12
#>  2 MBOPCAHDPPECY 71          2025-12-31 00:00:00   1.1  2025    12
#>  3 MBOPCAHDPPECY 71          2024-12-31 00:00:00   1.8  2024    12
#>  4 MBOPCAHDPPECY 71          2023-12-31 00:00:00  -0.1  2023    12
#>  5 MBOPCAHDPPECY 71          2022-12-31 00:00:00  -4.7  2022    12
#>  6 MBOPCAHDPPECY 71          2021-12-31 00:00:00  -2.1  2021    12
#>  7 MBOPCAHDPPECY 71          2020-12-31 00:00:00   1.8  2020    12
#>  8 MBOPCAHDPPECY 71          2019-12-31 00:00:00   0.3  2019    12
#>  9 MBOPCAHDPPECY 71          2018-12-31 00:00:00   0.4  2018    12
#> 10 MBOPCAHDPPECY 71          2017-12-31 00:00:00   1.5  2017    12
#> # ℹ 54 more rows
…
                            period_to = "20231231",
                            period_from = "20201031")
#> $api_key
#> [1] "20252406003048901461901461UWHUTG2Q7CX2Y7PX"
#> 
#> $indicator_id_list
#> [1] "MBOPCAHDPPECY,MBOPCCHDPPECY"
#> 
#> $period_from
#> [1] "20201031"
#> 
#> $period_to
#> [1] "20231231"
multi_data
#> # A tibble: 8 × 6
#>   indicator_id  snapshot_id period              value  year month
#>   <chr>         <chr>       <dttm>              <dbl> <dbl> <dbl>
#> 1 MBOPCAHDPPECY 71          2023-12-31 00:00:00  -0.1  2023    12
#> 2 MBOPCAHDPPECY 71          2022-12-31 00:00:00  -4.7  2022    12
#> 3 MBOPCAHDPPECY 71          2021-12-31 00:00:00  -2.1  2021    12
#> 4 MBOPCAHDPPECY 71          2020-12-31 00:00:00   1.8  2020    12
#> 5 MBOPCCHDPPECY 71          2023-12-31 00:00:00   1    2023    12
#> 6 MBOPCCHDPPECY 71          2022-12-31 00:00:00  -4.1  2022    12
#> 7 MBOPCCHDPPECY 71          2021-12-31 00:00:00  -0.4  2021    12
#> 8 MBOPCCHDPPECY 71          2020-12-31 00:00:00   2.9  2020    12

# Get raw data without processing (returns raw CSV data)
raw_data <- arad_get_data("SRUMD08402C", process_data = FALSE)
#> $api_key
#> [1] "20252406003048901461901461UWHUTG2Q7CX2Y7PX"
#> 
#> $indicator_id_list
#> [1] "SRUMD08402C"
raw_data
#>    [1] 69 6e 64 69 63 61 74 6f 72 5f 69 64 3b 73 6e 61 70 73 68 6f 74 5f 69 64 3b 70 65 72 69 6f 64 3b 76 61 6c 75 65 0d
#>   [39] 0a 22 53 52 55 4d 44 30 38 34 30 32 43 22 3b 3b 22 32 30 32 35 30 35 33 31 22 3b 39 34 34 35 30 30 35 31 31 35 34
#>   [77] 33 2c 39 30 39 39 0d 0a 22 53 52 55 4d 44 30 38 34 30 32 43 22 3b 3b 22 32 30 32 35 30 34 33 30 22 3b 37 34 38 37
#>  [115] 35 39 37 37 31 39 35 34 2c 32 36 39 39 36 0d 0a 22 53 52 55 4d 44 30 38 34 30 32 43 22 3b 3b 22 32 30 32 35 30 33
#>  [153] 33 31 22 3b 35 36 37 36 31 36 36 31 38 35 33 35 2c 32 37 39 39 39 0d 0a 22 53 52 55 4d 44 30 38 34 30 32 43 22 3b
#>  [191] 3b 22 32 30 32 35 30 32 32 38 22 3b 33 36 35 30 37 37 33 30 35 38 35 35 2c 32 33 39 39 37 0d 0a 22 53 52 55 4d 44
#>  [229] 30 38 34 30 32 43 22 3b 3b 22 32 30 32 35 30 31 33 31 22 3b 31 37 33 30 30 31 35 38 32 38 39 37 2c 33 39 30 30 31
#>  [267] 0d 0a 22 53 52 55 4d 44 30 38 34 30 32 43 22 3b 3b 22 32 30 32 34 31 32 33 31 22 3b 32 32 33 36 37 39 30 37 37 37
#>  [305] 34 37 38 2c 35 37 39 39 0d 0a 22 53 52 55 4d 44 30 38 34 30 32 43 22 3b 3b 22 32 30 32 34 31 31 33 30 22 3b 31 39
#>  [343] 39 36 36 33 36 34 36 33 31 39 39 2c 34 35 39 39 0d 0a 22 53 52 55 4d 44 30 38 34 30 32 43 22 3b 3b 22 32 30 32 34
#>  [381] 31 30 33 31 22 3b 31 38 30 32 39 31 33 33 31 38 38 38 30 2c 31 38 39 39 0d 0a 22 53 52 55 4d 44 30 38 34 30 32 43
#>  [419] 22 3b 3b 22 32 30 32 34 30 39 33 30 22 3b 31 36 32 36 34 34 35 37 32 36 34 30 30 2c 32 34 39 39 0d 0a 22 53 52 55
#>  [457] 4d 44 30 38 34 30 32 43 22 3b 3b 22 32 30 32 34 30 38 33 31 22 3b 31 34 34 36 30 30 32 30 37 39 30 33 37 0d 0a 22
#>  [495] 53 52 55 4d 44 30 38 34 30 32 43 22 3b 3b 22 32 30 32 34 30 37 33 31 22 3b 31 32 39 39 31 35 39 38 37 33 32 30 33
#>  [533] 2c 35 37 0d 0a 22 53 52 55 4d 44 30 38 34 30 32 43 22 3b 3b 22 32 30 32 34 30 36 33 30 22 3b 31 31 33 34 37 38 36
#>  [571] 39 38 31 37 38 39 2c 30 33 39 39 0d 0a 22 53 52 55 4d 44 30 38 34 30 32 43 22 3b 3b 22 32 30 32 34 30 35 33 31 22
#>  [609] 3b 39 33 31 35 30 36 33 30 31 36 30 33 2c 38 34 39 39 38 0d 0a 22 53 52 55 4d 44 30 38 34 30 32 43 22 3b 3b 22 32
#>  [647] 30 32 34 30 34 33 30 22 3b 37 34 34 39 37 33 39 34 32 30 39 31 2c 32 35 39 39 39 0d 0a 22 53 52 55 4d 44 30 38 34
#>  [685] 30 32 43 22 3b 3b 22 32 30 32 34 30 33 33 31 22 3b 35 35 34 30 34 34 38 38 30 37 39 33 2c 39 31 30 30 31 0d 0a 22
#>  [723] 53 52 55 4d 44 30 38 34 30 32 43 22 3b 3b 22 32 30 32 34 30 32 32 39 22 3b 33 37 35 35 34 31 36 32 34 33 34 33 2c
#>  [761] 33 36 39 39 37 0d 0a 22 53 52 55 4d 44 30 38 34 30 32 43 22 3b 3b 22 32 30 32 34 30 31 33 31 22 3b 31 37 33 34 37
#>  [799] 35 35 34 35 33 34 38 2c 30 34 0d 0a 22 53 52 55 4d 44 30 38 34 30 32 43 22 3b 3b 22 32 30 32 33 31 32 33 31 22 3b
#>  [837] 32 32 30 32 36 33 37 37 36 31 37 34 31 2c 30 39 39 39 0d 0a 22 53 52 55 4d 44 30 38 34 30 32 43 22 3b 3b 22 32 30
#>  [875] 32 33 31 31 33 30 22 3b 31 39 38 37 39 38 36 37 36 39 36 33 37 2c 38 30 30 31 0d 0a 22 53 52 55 4d 44 30 38 34 30
#>  [913] 32 43 22 3b 3b 22 32 30 32 33 31 30 33 31 22 3b 31 37 38 38 38 35 32 39 37 33 38 38 30 2c 39 31 30 31 0d 0a 22 53
#>  [951] 52 55 4d 44 30 38 34 30 32 43 22 3b 3b 22 32 30 32 33 30 39 33 30 22 3b 31 36 31 37 33 38 37 33 36 31 39 36 32 2c
#>  [989] 31 37 30 31 0d 0a 22 53 52 55 4d 44
#>  [ reached getOption("max.print") -- omitted 14945 entries ]
…
                           period_to = "20241231",
                           rename_value = "government_spending")
#> $api_key
#> [1] "20252406003048901461901461UWHUTG2Q7CX2Y7PX"
#> 
#> $indicator_id_list
#> [1] "SRUMD08402C"
#> 
#> $period_from
#> [1] "20121231"
#> 
#> $period_to
#> [1] "20241231"
spending
#> # A tibble: 145 × 6
#>    indicator_id snapshot_id period              government_spending  year month
#>    <chr>        <chr>       <dttm>                            <dbl> <dbl> <dbl>
#>  1 SRUMD08402C  <NA>        2024-12-31 00:00:00             2.24e12  2024    12
#>  2 SRUMD08402C  <NA>        2024-11-30 00:00:00             2.00e12  2024    11
#>  3 SRUMD08402C  <NA>        2024-10-31 00:00:00             1.80e12  2024    10
#>  4 SRUMD08402C  <NA>        2024-09-30 00:00:00             1.63e12  2024     9
#>  5 SRUMD08402C  <NA>        2024-08-31 00:00:00             1.45e12  2024     8
#>  6 SRUMD08402C  <NA>        2024-07-31 00:00:00             1.30e12  2024     7
#>  7 SRUMD08402C  <NA>        2024-06-30 00:00:00             1.13e12  2024     6
#>  8 SRUMD08402C  <NA>        2024-05-31 00:00:00             9.32e11  2024     5
#>  9 SRUMD08402C  <NA>        2024-04-30 00:00:00             7.45e11  2024     4
#> 10 SRUMD08402C  <NA>        2024-03-31 00:00:00             5.54e11  2024     3
#> # ℹ 135 more rows
…
