…
``` r
# Filter indicators by name within a data set
gdp_indicators <- arad_list_indicators(set_id = 1032, filter = "Místní vládní instituce")
#> ℹ Using "','" as decimal and "'.'" as grouping mark. Use `read_delim()` for more control.
gdp_indicators
#> # A tibble: 78 × 7
#>    indicator_id    indicator_name   frequency_code frequency_name unit_mult_code
#>    <chr>           <chr>            <chr>          <chr>          <chr>         
#>  1 SFU0QS1313L01LE Finanční účty, … Q              Čtvrtletní     6             
#>  2 SFU0QS1313L01T  Finanční účty, … Q              Čtvrtletní     6             
#>  3 SFU0QS1313A01LE Finanční účty, … Q              Čtvrtletní     6             
#>  4 SFU0QS1313A01T  Finanční účty, … Q              Čtvrtletní     6             
#>  5 SFU2QS1313L05T  Finanční účty, … Q              Čtvrtletní     6             
#>  6 SFU2QS1313A05LE Finanční účty, … Q              Čtvrtletní     6             
#>  7 SFU2QS1313A05T  Finanční účty, … Q              Čtvrtletní     6             
#>  8 SFU2QS1313A06LE Finanční účty, … Q              Čtvrtletní     6             
#>  9 SFU2QS1313A06T  Finanční účty, … Q              Čtvrtletní     6             
#> 10 SFU2QS1313L07T  Finanční účty, … Q              Čtvrtletní     6             
#> # ℹ 68 more rows
#> # ℹ 2 more variables: unit_mult_name <chr>, unit <chr>
```
…
Get time series data for the indicators you need:


``` r
# Get data for a single indicator
data <- arad_get_data(c("MBOPCAHDPPECY", "MBOPCCHDPPECY"))
#> $api_key
#> [1] "20252406003048901461901461UWHUTG2Q7CX2Y7PX"
#> 
#> $indicator_id_list
#> [1] "MBOPCAHDPPECY,MBOPCCHDPPECY"
#> ℹ Using "','" as decimal and "'.'" as grouping mark. Use `read_delim()` for more control.
data
#> # A tibble: 64 × 6
#>    indicator_id  snapshot_id period              value  year month
#>    <chr>         <chr>       <dttm>              <dbl> <dbl> <dbl>
#>  1 MBOPCAHDPPECY 71          2026-12-31 00:00:00   1.1  2026    12
#>  2 MBOPCAHDPPECY 71          2025-12-31 00:00:00   1.1  2025    12
#>  3 MBOPCAHDPPECY 71          2024-12-31 00:00:00   1.8  2024    12
#>  4 MBOPCAHDPPECY 71          2023-12-31 00:00:00  -0.1  2023    12
#>  5 MBOPCAHDPPECY 71          2022-12-31 00:00:00  -4.7  2022    12
#>  6 MBOPCAHDPPECY 71          2021-12-31 00:00:00  -2.1  2021    12
#>  7 MBOPCAHDPPECY 71          2020-12-31 00:00:00   1.8  2020    12
#>  8 MBOPCAHDPPECY 71          2019-12-31 00:00:00   0.3  2019    12
#>  9 MBOPCAHDPPECY 71          2018-12-31 00:00:00   0.4  2018    12
#> 10 MBOPCAHDPPECY 71          2017-12-31 00:00:00   1.5  2017    12
#> # ℹ 54 more rows
```
…
                           rename_value = "government_spending")
#> $api_key
#> [1] "20252406003048901461901461UWHUTG2Q7CX2Y7PX"
#> 
#> $indicator_id_list
#> [1] "SRUMD08402C"
#> 
#> $period_from
#> [1] "20121231"
#> 
#> $period_to
#> [1] "20241231"
#> ℹ Using "','" as decimal and "'.'" as grouping mark. Use `read_delim()` for more control.
spending
#> # A tibble: 145 × 6
#>    indicator_id snapshot_id period              government_spending  year month
#>    <chr>        <chr>       <dttm>                            <dbl> <dbl> <dbl>
#>  1 SRUMD08402C  <NA>        2024-12-31 00:00:00             2.24e12  2024    12
#>  2 SRUMD08402C  <NA>        2024-11-30 00:00:00             2.00e12  2024    11
#>  3 SRUMD08402C  <NA>        2024-10-31 00:00:00             1.80e12  2024    10
#>  4 SRUMD08402C  <NA>        2024-09-30 00:00:00             1.63e12  2024     9
#>  5 SRUMD08402C  <NA>        2024-08-31 00:00:00             1.45e12  2024     8
#>  6 SRUMD08402C  <NA>        2024-07-31 00:00:00             1.30e12  2024     7
#>  7 SRUMD08402C  <NA>        2024-06-30 00:00:00             1.13e12  2024     6
#>  8 SRUMD08402C  <NA>        2024-05-31 00:00:00             9.32e11  2024     5
#>  9 SRUMD08402C  <NA>        2024-04-30 00:00:00             7.45e11  2024     4
#> 10 SRUMD08402C  <NA>        2024-03-31 00:00:00             5.54e11  2024     3
#> # ℹ 135 more rows
```
…
